Team 8 Final Project – blog-post-4
…
print(combined_data_malewhitealone)

# A tibble: 408 × 3
   Years Percentage_men Race       
   <dbl> <chr>          <chr>      
 1  2022 31.3%          White Alone
 2  2021 30.4%          White Alone
 3  2020 28.9%          White Alone
 4  2019 28.5%          White Alone
 5  2018 28.4%          White Alone
 6  2017 28.7%          White Alone
 7  2016 27.8%          White Alone
 8  2015 26.6%          White Alone
 9  2022 34.1%          White Alone
10  2021 33.8%          White Alone
# ℹ 398 more rows
