Team 8 Final Project - Male Data Cleaning
…
print(combined_data_malewhitealone)

# A tibble: 408 × 3
   Years Percentage_men Race       
   <int> <chr>          <chr>      
 1  2022 31.3%          White Alone
 2  2021 30.4%          White Alone
 3  2020 28.9%          White Alone
 4  2019 28.5%          White Alone
 5  2018 28.4%          White Alone
 6  2017 28.7%          White Alone
 7  2016 27.8%          White Alone
 8  2015 26.6%          White Alone
 9  2022 34.1%          White Alone
10  2021 33.8%          White Alone
# ℹ 398 more rows
…
print(combined_data_wnhp)

# A tibble: 408 × 3
   Years Race                                Percentage_wnhp_men
   <int> <chr>                               <chr>              
 1  2022 White alone, not Hispanic or Latino <NA>               
 2  2021 White alone, not Hispanic or Latino <NA>               
 3  2020 White alone, not Hispanic or Latino <NA>               
 4  2019 White alone, not Hispanic or Latino <NA>               
 5  2018 White alone, not Hispanic or Latino <NA>               
 6  2017 White alone, not Hispanic or Latino <NA>               
 7  2016 White alone, not Hispanic or Latino <NA>               
 8  2015 White alone, not Hispanic or Latino <NA>               
 9  2022 White alone, not Hispanic or Latino 34.3%              
10  2021 White alone, not Hispanic or Latino 34.2%              
# ℹ 398 more rows
…
print(combined_data_wnhp)

# A tibble: 408 × 3
   Years Race        Percentage_wnhp_men
   <int> <chr>       <chr>              
 1  2022 Black Alone <NA>               
 2  2021 Black Alone <NA>               
 3  2020 Black Alone <NA>               
 4  2019 Black Alone <NA>               
 5  2018 Black Alone <NA>               
 6  2017 Black Alone <NA>               
 7  2016 Black Alone <NA>               
 8  2015 Black Alone <NA>               
 9  2022 Black Alone 19.7%              
10  2021 Black Alone 23.6%              
# ℹ 398 more rows
…
print(combined_data_wnhp)

# A tibble: 408 × 3
   Years Race                                   Percentage_wnhp_men
   <int> <chr>                                  <chr>              
 1  2022 American Indian or Alaska Native Alone <NA>               
 2  2021 American Indian or Alaska Native Alone <NA>               
 3  2020 American Indian or Alaska Native Alone <NA>               
 4  2019 American Indian or Alaska Native Alone <NA>               
 5  2018 American Indian or Alaska Native Alone <NA>               
 6  2017 American Indian or Alaska Native Alone <NA>               
 7  2016 American Indian or Alaska Native Alone <NA>               
 8  2015 American Indian or Alaska Native Alone <NA>               
 9  2022 American Indian or Alaska Native Alone 5.0%               
10  2021 American Indian or Alaska Native Alone 4.0%               
# ℹ 398 more rows
…
print(combined_data_wnhp)

# A tibble: 408 × 3
   Years Race        Percentage_wnhp_men
   <int> <chr>       <chr>              
 1  2022 Asian Alone <NA>               
 2  2021 Asian Alone <NA>               
 3  2020 Asian Alone <NA>               
 4  2019 Asian Alone <NA>               
 5  2018 Asian Alone <NA>               
 6  2017 Asian Alone <NA>               
 7  2016 Asian Alone <NA>               
 8  2015 Asian Alone <NA>               
 9  2022 Asian Alone 22.0%              
10  2021 Asian Alone 26.0%              
# ℹ 398 more rows
…
print(combined_data_wnhp)

# A tibble: 408 × 3
   Years Race                                             Percentage_wnhp_men
   <int> <chr>                                            <chr>              
 1  2022 Native Hawaiian and Other Pacific Islander Alone <NA>               
 2  2021 Native Hawaiian and Other Pacific Islander Alone <NA>               
 3  2020 Native Hawaiian and Other Pacific Islander Alone <NA>               
 4  2019 Native Hawaiian and Other Pacific Islander Alone <NA>               
 5  2018 Native Hawaiian and Other Pacific Islander Alone <NA>               
 6  2017 Native Hawaiian and Other Pacific Islander Alone <NA>               
 7  2016 Native Hawaiian and Other Pacific Islander Alone <NA>               
 8  2015 Native Hawaiian and Other Pacific Islander Alone <NA>               
 9  2022 Native Hawaiian and Other Pacific Islander Alone 2.4%               
10  2021 Native Hawaiian and Other Pacific Islander Alone 6.0%               
# ℹ 398 more rows
…
print(combined_data_wnhp)

# A tibble: 408 × 3
   Years Race                  Percentage_wnhp_men
   <int> <chr>                 <chr>              
 1  2022 Some other race Alone <NA>               
 2  2021 Some other race Alone <NA>               
 3  2020 Some other race Alone <NA>               
 4  2019 Some other race Alone <NA>               
 5  2018 Some other race Alone <NA>               
 6  2017 Some other race Alone <NA>               
 7  2016 Some other race Alone <NA>               
 8  2015 Some other race Alone <NA>               
 9  2022 Some other race Alone 24.7%              
10  2021 Some other race Alone 14.9%              
# ℹ 398 more rows
…
print(combined_data_wnhp)

# A tibble: 408 × 3
   Years Race               Percentage_wnhp_men
   <int> <chr>              <chr>              
 1  2022 Two or more races, <NA>               
 2  2021 Two or more races, <NA>               
 3  2020 Two or more races, <NA>               
 4  2019 Two or more races, <NA>               
 5  2018 Two or more races, <NA>               
 6  2017 Two or more races, <NA>               
 7  2016 Two or more races, <NA>               
 8  2015 Two or more races, <NA>               
 9  2022 Two or more races, 20.6%              
10  2021 Two or more races, 26.3%              
# ℹ 398 more rows
…
print(combined_data_wnhp)

# A tibble: 408 × 3
   Years Race                      Percentage_wnhp_men
   <int> <chr>                     <chr>              
 1  2022 Hispanic or Latino Origin <NA>               
 2  2021 Hispanic or Latino Origin <NA>               
 3  2020 Hispanic or Latino Origin <NA>               
 4  2019 Hispanic or Latino Origin <NA>               
 5  2018 Hispanic or Latino Origin <NA>               
 6  2017 Hispanic or Latino Origin <NA>               
 7  2016 Hispanic or Latino Origin <NA>               
 8  2015 Hispanic or Latino Origin <NA>               
 9  2022 Hispanic or Latino Origin 24.4%              
10  2021 Hispanic or Latino Origin 18.7%              
# ℹ 398 more rows
