Team 8 Final Project - Female Data Cleaning
…
print(combined_data_femalewhitealone)

# A tibble: 408 × 4
   Years Percentage_women Race        State  
   <int> <chr>            <chr>       <chr>  
 1  2022 31.9%            White Alone Alabama
 2  2021 30.2%            White Alone Alabama
 3  2020 28.7%            White Alone Alabama
 4  2019 28.6%            White Alone Alabama
 5  2018 28.0%            White Alone Alabama
 6  2017 28.3%            White Alone Alabama
 7  2016 26.2%            White Alone Alabama
 8  2015 26.7%            White Alone Alabama
 9  2022 41.2%            White Alone Alaska 
10  2021 43.7%            White Alone Alaska 
# ℹ 398 more rows
…
print(combined_data_wnhp)

# A tibble: 408 × 4
   Years Race                                State   Percentage_wnhp_women
   <int> <chr>                               <chr>   <chr>                
 1  2022 White alone, not Hispanic or Latino Alabama <NA>                 
 2  2021 White alone, not Hispanic or Latino Alabama <NA>                 
 3  2020 White alone, not Hispanic or Latino Alabama <NA>                 
 4  2019 White alone, not Hispanic or Latino Alabama <NA>                 
 5  2018 White alone, not Hispanic or Latino Alabama <NA>                 
 6  2017 White alone, not Hispanic or Latino Alabama <NA>                 
 7  2016 White alone, not Hispanic or Latino Alabama <NA>                 
 8  2015 White alone, not Hispanic or Latino Alabama <NA>                 
 9  2022 White alone, not Hispanic or Latino Alaska  41.3%                
10  2021 White alone, not Hispanic or Latino Alaska  44.5%                
# ℹ 398 more rows
…
print(combined_data_blackalone)

# A tibble: 408 × 4
   Years Percentage_black_women Race        State  
   <int> <chr>                  <chr>       <chr>  
 1  2022 24.5%                  Black Alone Alabama
 2  2021 22.3%                  Black Alone Alabama
 3  2020 21.7%                  Black Alone Alabama
 4  2019 21.9%                  Black Alone Alabama
 5  2018 20.5%                  Black Alone Alabama
 6  2017 20.1%                  Black Alone Alabama
 7  2016 21.3%                  Black Alone Alabama
 8  2015 18.6%                  Black Alone Alabama
 9  2022 12.6%                  Black Alone Alaska 
10  2021 39.3%                  Black Alone Alaska 
# ℹ 398 more rows
…
print(combined_data_aianalone)

# A tibble: 408 × 4
   Years Percentage_aiap_women Race                                   State  
   <int> <chr>                 <chr>                                  <chr>  
 1  2022 22.1%                 American Indian or Alaska Native Alone Alabama
 2  2021 19.8%                 American Indian or Alaska Native Alone Alabama
 3  2020 19.8%                 American Indian or Alaska Native Alone Alabama
 4  2019 26.7%                 American Indian or Alaska Native Alone Alabama
 5  2018 26.6%                 American Indian or Alaska Native Alone Alabama
 6  2017 19.3%                 American Indian or Alaska Native Alone Alabama
 7  2016 18.2%                 American Indian or Alaska Native Alone Alabama
 8  2015 20.7%                 American Indian or Alaska Native Alone Alabama
 9  2022 9.7%                  American Indian or Alaska Native Alone Alaska 
10  2021 13.6%                 American Indian or Alaska Native Alone Alaska 
# ℹ 398 more rows
…
print(combined_data_asianalone)

# A tibble: 408 × 4
   Years Percentage_asian_women Race        State  
   <int> <chr>                  <chr>       <chr>  
 1  2022 49.3%                  Asian Alone Alabama
 2  2021 59.4%                  Asian Alone Alabama
 3  2020 48.6%                  Asian Alone Alabama
 4  2019 54.3%                  Asian Alone Alabama
 5  2018 48.4%                  Asian Alone Alabama
 6  2017 42.0%                  Asian Alone Alabama
 7  2016 44.8%                  Asian Alone Alabama
 8  2015 42.9%                  Asian Alone Alabama
 9  2022 27.3%                  Asian Alone Alaska 
10  2021 33.0%                  Asian Alone Alaska 
# ℹ 398 more rows
…
print(combined_data_nhopalone)

# A tibble: 408 × 4
   Years Percentage_nhop_women Race                                        State
   <int> <chr>                 <chr>                                       <chr>
 1  2022 N                     Native Hawaiian and Other Pacific Islander… Alab…
 2  2021 N                     Native Hawaiian and Other Pacific Islander… Alab…
 3  2020 7.9%                  Native Hawaiian and Other Pacific Islander… Alab…
 4  2019 N                     Native Hawaiian and Other Pacific Islander… Alab…
 5  2018 N                     Native Hawaiian and Other Pacific Islander… Alab…
 6  2017 N                     Native Hawaiian and Other Pacific Islander… Alab…
 7  2016 N                     Native Hawaiian and Other Pacific Islander… Alab…
 8  2015 12.4%                 Native Hawaiian and Other Pacific Islander… Alab…
 9  2022 12.8%                 Native Hawaiian and Other Pacific Islander… Alas…
10  2021 24.2%                 Native Hawaiian and Other Pacific Islander… Alas…
# ℹ 398 more rows
…
print(combined_data_sor)

# A tibble: 408 × 4
   Years Race                  State   Percentage_sor_women
   <int> <chr>                 <chr>   <chr>               
 1  2022 Some other race Alone Alabama <NA>                
 2  2021 Some other race Alone Alabama <NA>                
 3  2020 Some other race Alone Alabama <NA>                
 4  2019 Some other race Alone Alabama <NA>                
 5  2018 Some other race Alone Alabama <NA>                
 6  2017 Some other race Alone Alabama <NA>                
 7  2016 Some other race Alone Alabama <NA>                
 8  2015 Some other race Alone Alabama <NA>                
 9  2022 Some other race Alone Alaska  26.0%               
10  2021 Some other race Alone Alaska  24.4%               
# ℹ 398 more rows
…
print(combined_data_tmr)

# A tibble: 408 × 4
   Years Percentage_tmr_women Race              State  
   <int> <chr>                <chr>             <chr>  
 1  2022 25.7%                Two or more races Alabama
 2  2021 31.0%                Two or more races Alabama
 3  2020 29.0%                Two or more races Alabama
 4  2019 30.7%                Two or more races Alabama
 5  2018 25.2%                Two or more races Alabama
 6  2017 26.9%                Two or more races Alabama
 7  2016 31.6%                Two or more races Alabama
 8  2015 26.4%                Two or more races Alabama
 9  2022 31.5%                Two or more races Alaska 
10  2021 39.2%                Two or more races Alaska 
# ℹ 398 more rows
…
print(combined_data_hloorigin)

# A tibble: 408 × 4
   Years Race                      State   Percentage_hloorigin_women
   <int> <chr>                     <chr>   <chr>                     
 1  2022 Hispanic or Latino Origin Alabama <NA>                      
 2  2021 Hispanic or Latino Origin Alabama <NA>                      
 3  2020 Hispanic or Latino Origin Alabama <NA>                      
 4  2019 Hispanic or Latino Origin Alabama <NA>                      
 5  2018 Hispanic or Latino Origin Alabama <NA>                      
 6  2017 Hispanic or Latino Origin Alabama <NA>                      
 7  2016 Hispanic or Latino Origin Alabama <NA>                      
 8  2015 Hispanic or Latino Origin Alabama <NA>                      
 9  2022 Hispanic or Latino Origin Alaska  25.3%                     
10  2021 Hispanic or Latino Origin Alaska  21.7%                     
# ℹ 398 more rows
…
